% $ biblatex auxiliary file $
% $ biblatex bbl format version 3.1 $
% Do not modify the above lines!
%
% This is an auxiliary file used by the 'biblatex' package.
% This file may safely be deleted. It will be recreated by
% biber as required.
%
\begingroup
\makeatletter
\@ifundefined{ver@biblatex.sty}
  {\@latex@error
     {Missing 'biblatex' package}
     {The bibliography requires the 'biblatex' package.}
      \aftergroup\endinput}
  {}
\endgroup


\refsection{0}
  \datalist[entry]{nty/global//global/global}
    \entry{sockshop:github}{misc}{}
      \name{author}{1}{}{%
        {{hash=e5085d8a52827fa2aba0e7d635a671da}{%
           family={microservices-demo},
           familyi={m\bibinithyphendelim d\bibinitperiod}}}%
      }
      \strng{namehash}{e5085d8a52827fa2aba0e7d635a671da}
      \strng{fullhash}{e5085d8a52827fa2aba0e7d635a671da}
      \strng{bibnamehash}{e5085d8a52827fa2aba0e7d635a671da}
      \strng{authorbibnamehash}{e5085d8a52827fa2aba0e7d635a671da}
      \strng{authornamehash}{e5085d8a52827fa2aba0e7d635a671da}
      \strng{authorfullhash}{e5085d8a52827fa2aba0e7d635a671da}
      \field{sortinit}{m}
      \field{sortinithash}{2e5c2f51f7fa2d957f3206819bf86dc3}
      \field{labelnamesource}{author}
      \field{labeltitlesource}{title}
      \field{title}{{Sock Shop : A Microservice Demo Application}}
      \true{nocite}
      \verb{urlraw}
      \verb https://github.com/microservices-demo/microservices-demo
      \endverb
      \verb{url}
      \verb https://github.com/microservices-demo/microservices-demo
      \endverb
    \endentry
    \entry{Neri2020}{article}{}
      \name{author}{4}{}{%
        {{hash=06d2916a22eb61fdde1611b980ffe4fc}{%
           family={Neri},
           familyi={N\bibinitperiod},
           given={Davide},
           giveni={D\bibinitperiod}}}%
        {{hash=b0a68289ccf904bbfb7488cfbaaa8bb8}{%
           family={Soldani},
           familyi={S\bibinitperiod},
           given={Jacopo},
           giveni={J\bibinitperiod}}}%
        {{hash=bf0c5cc5d9e500fedda1d337af7eb24e}{%
           family={Zimmermann},
           familyi={Z\bibinitperiod},
           given={Olaf},
           giveni={O\bibinitperiod}}}%
        {{hash=2964d7827a7d46baf7837b36d3562322}{%
           family={Brogi},
           familyi={B\bibinitperiod},
           given={Antonio},
           giveni={A\bibinitperiod}}}%
      }
      \strng{namehash}{ab6212e5dfdd68d81800284cf42f599d}
      \strng{fullhash}{42246a78bb00e6204179433468cf1b2e}
      \strng{bibnamehash}{ab6212e5dfdd68d81800284cf42f599d}
      \strng{authorbibnamehash}{ab6212e5dfdd68d81800284cf42f599d}
      \strng{authornamehash}{ab6212e5dfdd68d81800284cf42f599d}
      \strng{authorfullhash}{42246a78bb00e6204179433468cf1b2e}
      \field{sortinit}{N}
      \field{sortinithash}{98cf339a479c0454fe09153a08675a15}
      \field{labelnamesource}{author}
      \field{labeltitlesource}{title}
      \field{abstract}{Potential benefits such as agile service delivery have led many companies to deliver their business capabilities through microservices. Bad smells are however always around the corner, as witnessed by the considerable body of literature discussing architectural smells that possibly violate the design principles of microservices. In this paper, we systematically review the white and grey literature on the topic, in order to identify the most recognised architectural smells for microservices and to discuss the architectural refactorings allowing to resolve them.}
      \field{issn}{2524-8529}
      \field{journaltitle}{SICS Software-Intensive Cyber-Physical Systems}
      \field{number}{1}
      \field{title}{Design principles, architectural smells and refactorings for microservices: a multivocal review}
      \field{volume}{35}
      \field{year}{2020}
      \true{nocite}
      \field{pages}{3\bibrangedash 15}
      \range{pages}{13}
      \verb{doi}
      \verb 10.1007/s00450-019-00407-8
      \endverb
      \verb{urlraw}
      \verb https://doi.org/10.1007/s00450-019-00407-8
      \endverb
      \verb{url}
      \verb https://doi.org/10.1007/s00450-019-00407-8
      \endverb
    \endentry
    \entry{miscrofreshner:github}{misc}{}
      \name{author}{2}{}{%
        {{hash=1d8539542848d110129917fd2dbe385c}{%
           family={Service-Oriented},
           familyi={S\bibinithyphendelim O\bibinitperiod},
           given={Cloud},
           giveni={C\bibinitperiod}}}%
        {{hash=d0886e1469b4cca8ed259e08ea78ee2d}{%
           family={group},
           familyi={g\bibinitperiod},
           given={Fog\bibnamedelima Computing},
           giveni={F\bibinitperiod\bibinitdelim C\bibinitperiod},
           prefix={research},
           prefixi={r\bibinitperiod}}}%
      }
      \strng{namehash}{50534243463cf9795c876355b0966233}
      \strng{fullhash}{50534243463cf9795c876355b0966233}
      \strng{bibnamehash}{50534243463cf9795c876355b0966233}
      \strng{authorbibnamehash}{50534243463cf9795c876355b0966233}
      \strng{authornamehash}{50534243463cf9795c876355b0966233}
      \strng{authorfullhash}{50534243463cf9795c876355b0966233}
      \field{sortinit}{S}
      \field{sortinithash}{c319cff79d99c853d775f88277d4e45f}
      \field{labelnamesource}{author}
      \field{labeltitlesource}{title}
      \field{title}{{MicroFreshener}}
      \true{nocite}
      \verb{urlraw}
      \verb https://github.com/di-unipi-socc/microFreshener#microfreshener-architecture
      \endverb
      \verb{url}
      \verb https://github.com/di-unipi-socc/microFreshener#microfreshener-architecture
      \endverb
    \endentry
  \enddatalist
\endrefsection
\endinput

