\relax 
\providecommand\hyper@newdestlabel[2]{}
\abx@aux@refcontext{nty/global//global/global}
\providecommand\HyperFirstAtBeginDocument{\AtBeginDocument}
\HyperFirstAtBeginDocument{\ifx\hyper@anchor\@undefined
\global\let\oldcontentsline\contentsline
\gdef\contentsline#1#2#3#4{\oldcontentsline{#1}{#2}{#3}}
\global\let\oldnewlabel\newlabel
\gdef\newlabel#1#2{\newlabelxx{#1}#2}
\gdef\newlabelxx#1#2#3#4#5#6{\oldnewlabel{#1}{{#2}{#3}}}
\AtEndDocument{\ifx\hyper@anchor\@undefined
\let\contentsline\oldcontentsline
\let\newlabel\oldnewlabel
\fi}
\fi}
\global\let\hyper@last\relax 
\gdef\HyperFirstAtBeginDocument#1{#1}
\providecommand\HyField@AuxAddToFields[1]{}
\providecommand\HyField@AuxAddToCoFields[2]{}
\abx@aux@cite{sockshop:github}
\abx@aux@segm{0}{0}{sockshop:github}
\abx@aux@cite{miscrofreshner:github}
\abx@aux@segm{0}{0}{miscrofreshner:github}
\abx@aux@cite{sockshop:github}
\abx@aux@segm{0}{0}{sockshop:github}
\abx@aux@cite{miscrofreshner:github}
\abx@aux@segm{0}{0}{miscrofreshner:github}
\abx@aux@cite{sockshop:github}
\abx@aux@segm{0}{0}{sockshop:github}
\abx@aux@cite{sockshop:github}
\abx@aux@segm{0}{0}{sockshop:github}
\abx@aux@cite{miscrofreshner:github}
\abx@aux@segm{0}{0}{miscrofreshner:github}
\abx@aux@cite{sockshop:github}
\abx@aux@segm{0}{0}{sockshop:github}
\@writefile{toc}{\boolfalse {citerequest}\boolfalse {citetracker}\boolfalse {pagetracker}\boolfalse {backtracker}\relax }
\@writefile{lof}{\boolfalse {citerequest}\boolfalse {citetracker}\boolfalse {pagetracker}\boolfalse {backtracker}\relax }
\@writefile{lot}{\boolfalse {citerequest}\boolfalse {citetracker}\boolfalse {pagetracker}\boolfalse {backtracker}\relax }
\@writefile{toc}{\contentsline {section}{\numberline {1}Introduction}{1}{section.1}\protected@file@percent }
\@writefile{lof}{\contentsline {figure}{\numberline {1}{\ignorespaces Start Architecture of system \cite {sockshop:github}.\relax }}{1}{figure.caption.1}\protected@file@percent }
\providecommand*\caption@xref[2]{\@setref\relax\@undefined{#1}}
\newlabel{fig:start_architecture}{{1}{1}{Start Architecture of system \cite {sockshop:github}.\relax }{figure.caption.1}{}}
\abx@aux@cite{sockshop:github}
\abx@aux@segm{0}{0}{sockshop:github}
\abx@aux@cite{sockshop:github}
\abx@aux@segm{0}{0}{sockshop:github}
\abx@aux@cite{miscrofreshner:github}
\abx@aux@segm{0}{0}{miscrofreshner:github}
\abx@aux@cite{miscrofreshner:github}
\abx@aux@segm{0}{0}{miscrofreshner:github}
\abx@aux@cite{miscrofreshner:github}
\abx@aux@segm{0}{0}{miscrofreshner:github}
\abx@aux@cite{miscrofreshner:github}
\abx@aux@segm{0}{0}{miscrofreshner:github}
\abx@aux@cite{miscrofreshner:github}
\abx@aux@segm{0}{0}{miscrofreshner:github}
\abx@aux@cite{miscrofreshner:github}
\abx@aux@segm{0}{0}{miscrofreshner:github}
\abx@aux@cite{miscrofreshner:github}
\abx@aux@segm{0}{0}{miscrofreshner:github}
\abx@aux@cite{sockshop:github}
\abx@aux@segm{0}{0}{sockshop:github}
\abx@aux@cite{sockshop:github}
\abx@aux@segm{0}{0}{sockshop:github}
\abx@aux@cite{Neri2020}
\abx@aux@segm{0}{0}{Neri2020}
\abx@aux@cite{miscrofreshner:github}
\abx@aux@segm{0}{0}{miscrofreshner:github}
\abx@aux@cite{miscrofreshner:github}
\abx@aux@segm{0}{0}{miscrofreshner:github}
\abx@aux@cite{miscrofreshner:github}
\abx@aux@segm{0}{0}{miscrofreshner:github}
\abx@aux@cite{sockshop:github}
\abx@aux@segm{0}{0}{sockshop:github}
\abx@aux@cite{miscrofreshner:github}
\abx@aux@segm{0}{0}{miscrofreshner:github}
\abx@aux@cite{sockshop:github}
\abx@aux@segm{0}{0}{sockshop:github}
\abx@aux@cite{Neri2020}
\abx@aux@segm{0}{0}{Neri2020}
\@writefile{lof}{\contentsline {figure}{\numberline {2}{\ignorespaces {Pie chart that represent the frequency of architectural smells in \cite {sockshop:github}.}\relax }}{2}{figure.caption.2}\protected@file@percent }
\newlabel{fig:piechart}{{2}{2}{{Pie chart that represent the frequency of architectural smells in \cite {sockshop:github}.}\relax }{figure.caption.2}{}}
\@writefile{toc}{\contentsline {section}{\numberline {2}Possible Solutions}{2}{section.2}\protected@file@percent }
\newlabel{ex:example_ui_ref}{{2.1}{2}{}{exmp.2.1}{}}
\abx@aux@cite{miscrofreshner:github}
\abx@aux@segm{0}{0}{miscrofreshner:github}
\abx@aux@cite{miscrofreshner:github}
\abx@aux@segm{0}{0}{miscrofreshner:github}
\abx@aux@cite{Neri2020}
\abx@aux@segm{0}{0}{Neri2020}
\newlabel{fig:smell_fix_ex}{{3a}{3}{Subfigure 3a}{subfigure.3.1}{}}
\newlabel{sub@fig:smell_fix_ex}{{(a)}{a}{Subfigure 3a\relax }{subfigure.3.1}{}}
\@writefile{lof}{\contentsline {figure}{\numberline {3}{\ignorespaces Solution proposed by \cite {miscrofreshner:github} for the Example 2.1.\relax }}{3}{figure.caption.3}\protected@file@percent }
\newlabel{fig:smell_fix_ex_sol}{{4a}{3}{Subfigure 4a}{subfigure.4.1}{}}
\newlabel{sub@fig:smell_fix_ex_sol}{{(a)}{a}{Subfigure 4a\relax }{subfigure.4.1}{}}
\@writefile{lof}{\contentsline {figure}{\numberline {4}{\ignorespaces Result of the application of the most popular solution for the smell described inside the Example \ref  {ex:example_ui_ref}\relax }}{3}{figure.caption.3}\protected@file@percent }
\@writefile{lof}{\contentsline {subfigure}{\numberline{(a)}{\ignorespaces {Smell fixes suggested by \cite {miscrofreshner:github}.}}}{3}{subfigure.3.1}\protected@file@percent }
\@writefile{lof}{\contentsline {subfigure}{\numberline{(a)}{\ignorespaces {Smell fixes suggested by \cite {miscrofreshner:github}.}}}{3}{subfigure.4.1}\protected@file@percent }
\newlabel{ex:final_example}{{2.2}{3}{}{exmp.2.2}{}}
\@writefile{lof}{\contentsline {figure}{\numberline {5}{\ignorespaces Status after refactoring described in the Example[\ref  {ex:final_example}].\relax }}{4}{figure.caption.4}\protected@file@percent }
\newlabel{fig:final_ex}{{5}{4}{Status after refactoring described in the Example[\ref {ex:final_example}].\relax }{figure.caption.4}{}}
\@writefile{lof}{\contentsline {figure}{\numberline {6}{\ignorespaces Status of \cite {miscrofreshner:github} analysis after \emph  {message router} architectural refactoring.\relax }}{4}{figure.caption.5}\protected@file@percent }
\newlabel{fig:final_ex_02}{{6}{4}{Status of \cite {miscrofreshner:github} analysis after \emph {message router} architectural refactoring.\relax }{figure.caption.5}{}}
\@writefile{toc}{\contentsline {section}{\numberline {3}Conclusion}{4}{section.3}\protected@file@percent }
\abx@aux@refcontextdefaultsdone
\abx@aux@defaultrefcontext{0}{sockshop:github}{nty/global//global/global}
\abx@aux@defaultrefcontext{0}{Neri2020}{nty/global//global/global}
\abx@aux@defaultrefcontext{0}{miscrofreshner:github}{nty/global//global/global}
\@writefile{lof}{\contentsline {figure}{\numberline {7}{\ignorespaces Pie charts of refactoring frequency.\relax }}{5}{figure.caption.6}\protected@file@percent }
\newlabel{fig:frequency_refactoring}{{7}{5}{Pie charts of refactoring frequency.\relax }{figure.caption.6}{}}
\@writefile{lof}{\contentsline {subfigure}{\numberline{(a)}{\ignorespaces {Architectural refactoring frequency described in the example \ref {ex:example_ui_ref}.}}}{5}{subfigure.7.1}\protected@file@percent }
\@writefile{lof}{\contentsline {subfigure}{\numberline{(b)}{\ignorespaces {Architectural refactoring frequency with the uses of \emph {Message router mechanism}.}}}{5}{subfigure.7.2}\protected@file@percent }
